id,name,date,room,fat,weight,bmi,logId,timestamp
23,Aria,Thu Apr 09 2020 13:24:50 GMT+0900 (GMT+09:00),0,8.954999923706055,75.4,25.19,1586438690000,Fri Apr 10 2020 00:10:00 GMT+0900 (GMT+09:00)
24,Aria,Thu Apr 09 2020 14:53:25 GMT+0900 (GMT+09:00),0,9.404000282287598,75,25.06,1586444005000,Fri Apr 10 2020 00:10:00 GMT+0900 (GMT+09:00)
25,Aria,Thu Apr 09 2020 15:08:53 GMT+0900 (GMT+09:00),0,9.39799976348877,75.4,25.19,1586444933000,Fri Apr 10 2020 00:10:00 GMT+0900 (GMT+09:00)
26,Aria,Thu Apr 09 2020 17:04:13 GMT+0900 (GMT+09:00),0,9.331000328063965,74.6,24.93,1586451853000,Fri Apr 10 2020 00:10:00 GMT+0900 (GMT+09:00)
27,Aria,Thu Apr 09 2020 18:15:37 GMT+0900 (GMT+09:00),0,9.340999603271484,75.2,25.13,1586456137000,Fri Apr 10 2020 00:10:00 GMT+0900 (GMT+09:00)
28,Aria,Thu Apr 09 2020 19:11:54 GMT+0900 (GMT+09:00),0,9.463000297546387,74.8,24.99,1586459514000,Fri Apr 10 2020 00:10:00 GMT+0900 (GMT+09:00)
29,Aria,Thu Apr 09 2020 21:50:42 GMT+0900 (GMT+09:00),0,9.50100040435791,75,25.06,1586469042000,Fri Apr 10 2020 00:10:00 GMT+0900 (GMT+09:00)
30,Aria,Thu Apr 09 2020 22:20:26 GMT+0900 (GMT+09:00),0,9.560999870300293,75,25.06,1586470826000,Fri Apr 10 2020 00:10:00 GMT+0900 (GMT+09:00)
31,API,Thu Apr 09 2020 23:59:59 GMT+0900 (GMT+09:00),0,,75,25.06,1586476799000,Fri Apr 10 2020 00:10:00 GMT+0900 (GMT+09:00)
32,Aria,Fri Apr 10 2020 08:17:25 GMT+0900 (GMT+09:00),0,9.720999717712402,74.2,24.79,1586506645000,Sat Apr 11 2020 00:10:00 GMT+0900 (GMT+09:00)
33,Aria,Fri Apr 10 2020 12:16:03 GMT+0900 (GMT+09:00),0,9.732000350952148,75,25.06,1586520963000,Sat Apr 11 2020 00:10:00 GMT+0900 (GMT+09:00)
34,Aria,Fri Apr 10 2020 15:30:59 GMT+0900 (GMT+09:00),0,9.88700008392334,74.8,24.99,1586532659000,Sat Apr 11 2020 00:10:00 GMT+0900 (GMT+09:00)
35,Aria,Fri Apr 10 2020 21:19:02 GMT+0900 (GMT+09:00),0,10.130999565124512,75.6,25.26,1586553542000,Sat Apr 11 2020 00:10:00 GMT+0900 (GMT+09:00)
36,Aria,Sat Apr 11 2020 09:08:04 GMT+0900 (GMT+09:00),0,10.322999954223633,74.2,24.79,1586596084000,Sun Apr 12 2020 00:10:00 GMT+0900 (GMT+09:00)
37,Aria,Sat Apr 11 2020 16:54:29 GMT+0900 (GMT+09:00),0,9.907999992370605,75.2,25.13,1586624069000,Sun Apr 12 2020 00:10:00 GMT+0900 (GMT+09:00)
38,Aria,Tue Apr 14 2020 22:22:46 GMT+0900 (GMT+09:00),0,9.472000122070312,75.8,25.33,1586902966000,Wed Apr 15 2020 00:10:00 GMT+0900 (GMT+09:00)
39,Aria,Tue Apr 14 2020 23:11:29 GMT+0900 (GMT+09:00),0,9.319999694824219,75.6,25.26,1586905889000,Wed Apr 15 2020 00:10:00 GMT+0900 (GMT+09:00)
40,Aria,Wed Apr 15 2020 08:37:52 GMT+0900 (GMT+09:00),0,9.625,75.2,25.13,1586939872000,Thu Apr 16 2020 00:10:00 GMT+0900 (GMT+09:00)
41,Aria,Wed Apr 15 2020 11:33:55 GMT+0900 (GMT+09:00),0,10.190999984741211,76.4,25.53,1586950435000,Thu Apr 16 2020 00:10:00 GMT+0900 (GMT+09:00)
42,Aria,Thu Apr 16 2020 14:39:42 GMT+0900 (GMT+09:00),0,10.805999755859375,74.8,24.99,1587047982000,Fri Apr 17 2020 00:10:00 GMT+0900 (GMT+09:00)
43,Aria,Thu Apr 16 2020 18:16:15 GMT+0900 (GMT+09:00),0,11.82800006866455,75.2,25.13,1587060975000,Fri Apr 17 2020 00:10:00 GMT+0900 (GMT+09:00)
44,Aria,Fri Apr 17 2020 22:51:39 GMT+0900 (GMT+09:00),0,11.494000434875488,75.6,25.26,1587163899000,Sat Apr 18 2020 00:10:00 GMT+0900 (GMT+09:00)
45,Aria,Sat Apr 18 2020 14:33:01 GMT+0900 (GMT+09:00),0,11.980999946594238,75,25.06,1587220381000,Sun Apr 19 2020 00:10:00 GMT+0900 (GMT+09:00)
46,Aria,Sat Apr 18 2020 22:09:29 GMT+0900 (GMT+09:00),0,11.29699993133545,75,25.06,1587247769000,Sun Apr 19 2020 00:10:00 GMT+0900 (GMT+09:00)
47,Aria,Sun Apr 19 2020 07:30:33 GMT+0900 (GMT+09:00),0,11.121999740600586,75.2,25.13,1587281433000,Mon Apr 20 2020 00:10:00 GMT+0900 (GMT+09:00)
48,Aria,Tue Apr 21 2020 22:56:02 GMT+0900 (GMT+09:00),0,10.664999961853027,75.6,25.26,1587509762000,Wed Apr 22 2020 00:10:00 GMT+0900 (GMT+09:00)
49,Aria,Wed Apr 22 2020 08:07:20 GMT+0900 (GMT+09:00),0,10.902000427246094,76.4,25.53,1587542840000,Thu Apr 23 2020 00:10:00 GMT+0900 (GMT+09:00)
50,Aria,Wed Apr 22 2020 13:47:24 GMT+0900 (GMT+09:00),0,10.73900032043457,76,25.39,1587563244000,Thu Apr 23 2020 00:10:00 GMT+0900 (GMT+09:00)
51,Aria,Wed Apr 22 2020 16:07:28 GMT+0900 (GMT+09:00),0,10.77299976348877,76,25.39,1587571648000,Thu Apr 23 2020 00:10:00 GMT+0900 (GMT+09:00)
52,Aria,Wed Apr 22 2020 23:20:00 GMT+0900 (GMT+09:00),0,10.178999900817871,75.4,25.19,1587597600000,Thu Apr 23 2020 00:10:00 GMT+0900 (GMT+09:00)
53,Aria,Thu Apr 23 2020 08:38:34 GMT+0900 (GMT+09:00),0,10.310999870300293,75.4,25.19,1587631114000,Fri Apr 24 2020 00:10:00 GMT+0900 (GMT+09:00)
54,Aria,Thu Apr 23 2020 12:25:14 GMT+0900 (GMT+09:00),0,10.623000144958496,76.8,25.66,1587644714000,Fri Apr 24 2020 00:10:00 GMT+0900 (GMT+09:00)
55,Aria,Thu Apr 23 2020 23:27:57 GMT+0900 (GMT+09:00),0,10.258999824523926,74.6,24.93,1587684477000,Fri Apr 24 2020 00:10:00 GMT+0900 (GMT+09:00)
56,Aria,Fri Apr 24 2020 08:41:45 GMT+0900 (GMT+09:00),0,11.17300033569336,75,25.06,1587717705000,Sat Apr 25 2020 00:10:00 GMT+0900 (GMT+09:00)
57,Aria,Fri Apr 24 2020 22:52:56 GMT+0900 (GMT+09:00),0,10.185999870300293,74.8,24.99,1587768776000,Sat Apr 25 2020 00:10:00 GMT+0900 (GMT+09:00)
58,Aria,Tue Apr 28 2020 20:42:45 GMT+0900 (GMT+09:00),0,9.831000328063965,76,25.39,1588106565000,Wed Apr 29 2020 00:10:00 GMT+0900 (GMT+09:00)
59,Aria,Wed Apr 29 2020 22:53:24 GMT+0900 (GMT+09:00),0,9.093000411987305,76.2,25.46,1588200804000,Thu Apr 30 2020 00:10:01 GMT+0900 (GMT+09:00)
60,Aria,Thu Apr 30 2020 08:52:47 GMT+0900 (GMT+09:00),0,9.300000190734863,75.8,25.33,1588236767000,Fri May 01 2020 00:10:00 GMT+0900 (GMT+09:00)
61,Aria,Thu Apr 30 2020 09:35:31 GMT+0900 (GMT+09:00),0,9.390000343322754,76,25.39,1588239331000,Fri May 01 2020 00:10:00 GMT+0900 (GMT+09:00)
62,Aria,Fri May 01 2020 21:18:54 GMT+0900 (GMT+09:00),0,9.178000450134277,75.8,25.33,1588367934000,Sat May 02 2020 00:10:00 GMT+0900 (GMT+09:00)
63,Aria,Fri May 01 2020 22:55:28 GMT+0900 (GMT+09:00),0,8.866999626159668,75.2,25.13,1588373728000,Sat May 02 2020 00:10:00 GMT+0900 (GMT+09:00)
64,Aria,Sat May 02 2020 07:01:25 GMT+0900 (GMT+09:00),0,9.204000473022461,75.4,25.19,1588402885000,Sun May 03 2020 00:10:00 GMT+0900 (GMT+09:00)
65,Aria,Sat May 02 2020 07:02:25 GMT+0900 (GMT+09:00),0,9.505000114440918,74.8,24.99,1588402945000,Sun May 03 2020 00:10:00 GMT+0900 (GMT+09:00)
66,Aria,Wed May 06 2020 16:16:52 GMT+0900 (GMT+09:00),0,9.472999572753906,76,25.39,1588781812000,Thu May 07 2020 00:10:00 GMT+0900 (GMT+09:00)
67,Aria,Wed May 06 2020 20:29:09 GMT+0900 (GMT+09:00),0,9.319999694824219,76.6,25.59,1588796949000,Thu May 07 2020 00:10:00 GMT+0900 (GMT+09:00)
68,Aria,Wed May 06 2020 23:58:45 GMT+0900 (GMT+09:00),0,9.164999961853027,76.4,25.53,1588809525000,Thu May 07 2020 00:10:00 GMT+0900 (GMT+09:00)
69,Aria,Thu May 07 2020 08:34:24 GMT+0900 (GMT+09:00),0,9.494000434875488,75.8,25.33,1588840464000,Fri May 08 2020 00:10:00 GMT+0900 (GMT+09:00)
70,Aria,Thu May 07 2020 14:49:27 GMT+0900 (GMT+09:00),0,9.300999641418457,75.8,25.33,1588862967000,Fri May 08 2020 00:10:00 GMT+0900 (GMT+09:00)
71,Aria,Thu May 07 2020 17:24:26 GMT+0900 (GMT+09:00),0,8.956999778747559,75.4,25.19,1588872266000,Fri May 08 2020 00:10:00 GMT+0900 (GMT+09:00)
72,Aria,Thu May 07 2020 22:53:06 GMT+0900 (GMT+09:00),0,8.739999771118164,75.4,25.19,1588891986000,Fri May 08 2020 00:10:00 GMT+0900 (GMT+09:00)
73,Aria,Fri May 08 2020 00:34:40 GMT+0900 (GMT+09:00),0,8.65999984741211,75.8,25.33,1588898080000,Sat May 09 2020 00:10:00 GMT+0900 (GMT+09:00)
74,Aria,Fri May 08 2020 11:49:55 GMT+0900 (GMT+09:00),0,8.770999908447266,75.6,25.26,1588938595000,Sat May 09 2020 00:10:00 GMT+0900 (GMT+09:00)
75,Aria,Fri May 08 2020 15:43:27 GMT+0900 (GMT+09:00),0,8.90999984741211,74.6,24.93,1588952607000,Sat May 09 2020 00:10:00 GMT+0900 (GMT+09:00)
76,Aria,Fri May 08 2020 17:19:17 GMT+0900 (GMT+09:00),0,9.135000228881836,75.2,25.13,1588958357000,Sat May 09 2020 00:10:00 GMT+0900 (GMT+09:00)
77,Aria,Fri May 08 2020 21:27:14 GMT+0900 (GMT+09:00),0,9.161999702453613,75.2,25.13,1588973234000,Sat May 09 2020 00:10:00 GMT+0900 (GMT+09:00)
